Design Route Status
                                               :      # nets :
   ------------------------------------------- : ----------- :
   # of logical nets.......................... :       34852 :
       # of nets not needing routing.......... :       18164 :
           # of internally routed nets........ :       18140 :
           # of nets with no loads............ :          24 :
       # of routable nets..................... :       16688 :
           # of fully routed nets............. :       16688 :
       # of nets with routing errors.......... :           0 :
   ------------------------------------------- : ----------- :

